{
    "inputMessageMetadata": {
        "messagePayload": {
            "connectorName": "#_custom_mule_metadata_type_#",
            "typeId": "entrada"
        }
    },
    "outputMessageMetadata": {
        "messagePayload": {
            "connectorName": "#_custom_mule_metadata_type_#",
            "typeId": "idLocal"
        }
    },
    "id": "04746cf4-321d-4ac4-8db6-3d4ba37d2385",
    "version": "5.2.0.0"
}