{
    "inputMessageMetadata": {
        "messagePayload": {
            "connectorName": "#_custom_mule_metadata_type_#",
            "typeId": "json"
        }
    },
    "outputMessageMetadata": {
        "messagePayload": {
            "connectorName": "#_custom_mule_metadata_type_#",
            "typeId": "baseDatos"
        }
    },
    "id": "52a3aec7-4904-42e8-b6ca-cf1010127946",
    "version": "5.2.0.0"
}