{
    "inputMessageMetadata": {
        "messagePayload": {
            "connectorName": "#_custom_mule_metadata_type_#",
            "typeId": "leerdatos"
        }
    },
    "outputMessageMetadata": {
        "messagePayload": {
            "connectorName": "#_custom_mule_metadata_type_#",
            "typeId": "leerdatos"
        }
    },
    "id": "fddb6f9c-256a-47c3-9d10-7291e6b90af1",
    "version": "5.2.0.0"
}